[
  {"id":"fauchie_git_2018","abstract":"Les systèmes de gestion de version sont largement employés pour écrire, éditer et publier du code informatique. Parmi ces systèmes Git est désormais le plus utilisé, popularisé par des plateformes comme GitHub, GitLab ou même GitBook. Les systèmes de révision et de validation des éditeurs doivent-ils s'inspirer d'un système de gestion de version ? Quels bénéfices les chaînes de publication tirent-elles de Git ? N'est-ce pas l'occasion de co-concevoir des livres d'une nouvelle façon ?","author":[{"family":"Fauchié","given":"Antoine"}],"event":"ÉCRIDIL","event-place":"Montréal, Canada","genre":"Colloque international ÉCRIDIL, Montréal","issued":{"date-parts":[[2018,4,30]]},"language":"fr","publisher-place":"Montréal, Canada","title":"Git comme nouvel ingrédient des chaînes de publication","type":"speech","URL":"http://presentations.quaternum.net/git-comme-nouvel-ingredient-des-chaines-de-publication/"},
  {"id":"fauchie_les_2020","abstract":"Les technologies d’édition numérique sont à l’origine des documents comme les articles ou les ouvrages, et elles constituent un exemple original d’objet nativement numérique. Dynamiques, modulables, protéiformes, plusieurs exemples récents de technologies tendent à interroger leur statut. Si notre point de départ est la comparaison entre les documents et les technologies d’édition numérique, nous les dissocierons en soulignant la dimension réflexive de ces technologies. Cet article présente trois exemples : Distill, une revue dont les articles sont gérés comme des programmes informatiques ; Quire, une chaîne de publication qui génère des livres multiformes ; Stylo, un éditeur de texte sémantique qui permet l’écriture dans un contexte d’édition scientifique. Notre méthodologie consiste en l’analyse de ces trois systèmes de publication, emblématiques des transformations numériques à l’œuvre, basée sur trois critères (structure, inscription et réflexivité). Ces trois initiatives rassemblent nombre des spécificités propres aux objets nativement numériques qui nous entourent désormais, alors que les technologies d’édition traditionnelles reposent principalement sur une chaîne d’impression.","accessed":{"date-parts":[[2020,2,25]]},"author":[{"family":"Fauchié","given":"Antoine"}],"container-title":"Balisages","DOI":"10.35562/balisages.321","ISSN":"2724-7430","issue":"1","issued":{"date-parts":[[2020,2,24]]},"language":"fr","title":"Les technologies d’édition numérique sont-elles des documents comme les autres ?","type":"article-journal","URL":"https://publications-prairial.fr/balisages/index.php?id=321"},
  {"id":"fauchie_livre_2017","author":[{"family":"Fauchié","given":"Antoine"}],"container-title":"Design et innovation dans la chaîne du livre","event-place":"Paris, France","ISBN":"978-2-13-078883-6","issued":{"date-parts":[[2017]]},"language":"fr-FR","page":"141-158","publisher":"PUF","publisher-place":"Paris, France","title":"Le livre web comme objet d’édition ?","type":"chapter"},
  {"id":"fauchie_markdown_2018","abstract":"Inventé par John Gruber au début des années 2000, Markdown est un langage sémantique qui permet d’écrire du HTML — Hyper Text Markup Language — avec un système de balisage bien plus léger. D’abord plébiscité par les développeurs pour rédiger leur documentation, cette syntaxe est désormais de plus en plus employée, notamment dans des applications numériques qui cherchent à se passer d’interfaces WYSIWYG — What You See Is What You Get : ce que l’on voit est ce que l’on obtient, fonctionnement des traitements de texte classiques. Pensé pour distinguer la structure sémantique et la mise en forme d’un document, et être très facilement transformable en HTML, Markdown devient le pivot de l’écriture numérique, rendant les fichiers sources tout autant lisibles par des humains, interopérables pour les machines ou résilients. En plus de Markdown, d’autres langages sémantiques comme Asciidoc semblent s’imposer face aux interfaces WYSIWYG qui n’ont pas résolu le problème de l’interaction homme - texte structuré, et que LaTeX a limité à des usages universitaires. Si le standard du web est le HTML, comment Markdown peut-il être la norme de l’écriture numérique ?","author":[{"family":"Fauchié","given":"Antoine"}],"container-title":"Réél - Virtuel","issue":"6","issued":{"date-parts":[[2018]]},"language":"fr","title":"Markdown comme condition d'une norme de l'écriture numérique","type":"article-journal","URL":"http://www.reel-virtuel.com/numeros/numero6/sentinelles/markdown-condition-ecriture-numerique"},
  {"id":"fauchie_origines_2019","accessed":{"date-parts":[[2020,3,5]]},"author":[{"family":"Fauchié","given":"Antoine"}],"collection-title":"La Boîte à outils","container-title":"Connaître et valoriser la création littéraire numérique en bibliothèque","event-place":"Villeurbanne, France","ISBN":"978-2-37546-105-1","issued":{"date-parts":[[2019,12,11]]},"language":"fr","page":"72-80","publisher":"Presses de l’Enssib","publisher-place":"Villeurbanne, France","source":"OpenEdition Books","title":"Origines, formes et supports du livre numérique","type":"chapter","URL":"http://books.openedition.org/pressesenssib/10171"},
  {"id":"fauchie_repenser_2018","abstract":"La rencontre des univers du livre et du d&#233;veloppement logiciel est &#224; l&#8217;&#339;uvre dans plusieurs exp&#233;rimentations de cha&#238;nes &#233;ditoriales, faisant appara&#238;tre de nouvelles approches et de nouvelles pratiques de design. Les &#233;tapes du processus d&#8217;&#233;dition sont r&#233;&#233;valu&#233;es, repens&#233;es, re-con&#231;ues, notamment par l&#8217;av&#232;nement d&#8217;un environnement profond&#233;ment num&#233;rique. Quelles sont les influences des m&#233;thodes et des outils du d&#233;veloppement web sur les cha&#238;nes de publication des livres&#160;? Nous nous focaliserons ici sur quatre aspects&#160;: la modularit&#233; des &#233;tapes et outils d&#8217;&#233;dition, l&#8217;ouverture des formats, la r&#233;duction de la distance entre le contenu et ses usages et l&#8217;&#233;conomie acquise qui concerne principalement l&#8217;humain. Cet article constitue un bref panorama des efforts n&#233;cessaires pour envisager une &#233;volution des cha&#238;nes d&#8217;&#233;dition, en sollicitant les pens&#233;es d&#8217;Ivan Illich et de Gilbert Simondon. Nous interrogerons des syst&#232;mes innovants inspir&#233;s de la m&#233;thode Agile, ch&#232;re au monde du d&#233;veloppement logiciel.","accessed":{"date-parts":[[2018,12,14]]},"author":[{"family":"Fauchié","given":"Antoine"},{"family":"Parisot","given":"Thomas"}],"container-title":"Sciences du Design","ISSN":"2428-3711","issue":"2","issued":{"date-parts":[[2018,12,14]]},"language":"fr","page":"45-56","source":"www-cairn-info.sidnomade-2.grenet.fr","title":"Repenser les chaînes de publication par l’intégration des pratiques du développement logiciel","type":"article-journal","URL":"http://www.cairn.info/revue-sciences-du-design-2018-2-page-45.htm","volume":"8"},
  {"id":"fauchie_vers_2018-3","author":[{"family":"Fauchié","given":"Antoine"}],"event":"Repenser les humanités numériques / Thinking the Digital Humanities Anew","event-place":"Montréal, Canada","genre":"Colloque international CRIHN, Montréal","issued":{"date-parts":[[2018,10,27]]},"language":"fr","publisher-place":"Montréal, Canada","title":"Vers un système modulaire de publication: éditer avec le numérique","type":"speech","URL":"https://presentations.quaternum.net/systeme-modulaire-de-publication-crihn/"}
]
